<?xml version="1.0" encoding="UTF-8"?>
<svg xmlns="http://www.w3.org/2000/svg" xmlns:xlink="http://www.w3.org/1999/xlink" width="612pt" height="792pt" viewBox="0 0 612 792" version="1.1">
<defs>
<g>
<symbol overflow="visible" id="glyph0-0">
<path style="stroke:none;" d=""/>
</symbol>
<symbol overflow="visible" id="glyph0-1">
<path style="stroke:none;" d="M 3.734375 -6.03125 C 3.8125 -6.390625 3.84375 -6.5 4.78125 -6.5 C 5.078125 -6.5 5.15625 -6.5 5.15625 -6.6875 C 5.15625 -6.8125 5.046875 -6.8125 5 -6.8125 C 4.671875 -6.8125 3.859375 -6.78125 3.53125 -6.78125 C 3.234375 -6.78125 2.5 -6.8125 2.203125 -6.8125 C 2.140625 -6.8125 2.015625 -6.8125 2.015625 -6.609375 C 2.015625 -6.5 2.109375 -6.5 2.296875 -6.5 C 2.3125 -6.5 2.5 -6.5 2.671875 -6.484375 C 2.84375 -6.453125 2.9375 -6.453125 2.9375 -6.3125 C 2.9375 -6.28125 2.9375 -6.25 2.90625 -6.125 L 1.5625 -0.78125 C 1.46875 -0.390625 1.453125 -0.3125 0.65625 -0.3125 C 0.484375 -0.3125 0.390625 -0.3125 0.390625 -0.109375 C 0.390625 0 0.484375 0 0.65625 0 L 5.28125 0 C 5.515625 0 5.515625 0 5.578125 -0.171875 L 6.375 -2.328125 C 6.40625 -2.4375 6.40625 -2.453125 6.40625 -2.46875 C 6.40625 -2.5 6.375 -2.578125 6.296875 -2.578125 C 6.203125 -2.578125 6.1875 -2.515625 6.125 -2.359375 C 5.78125 -1.453125 5.34375 -0.3125 3.625 -0.3125 L 2.6875 -0.3125 C 2.546875 -0.3125 2.515625 -0.3125 2.46875 -0.3125 C 2.359375 -0.328125 2.328125 -0.34375 2.328125 -0.421875 C 2.328125 -0.453125 2.328125 -0.46875 2.375 -0.640625 Z M 3.734375 -6.03125 "/>
</symbol>
<symbol overflow="visible" id="glyph0-2">
<path style="stroke:none;" d="M 6.328125 -5.765625 C 6.4375 -6.171875 6.609375 -6.46875 7.40625 -6.5 C 7.453125 -6.5 7.578125 -6.515625 7.578125 -6.703125 C 7.578125 -6.703125 7.578125 -6.8125 7.453125 -6.8125 C 7.125 -6.8125 6.765625 -6.78125 6.4375 -6.78125 C 6.09375 -6.78125 5.71875 -6.8125 5.390625 -6.8125 C 5.328125 -6.8125 5.21875 -6.8125 5.21875 -6.609375 C 5.21875 -6.5 5.3125 -6.5 5.390625 -6.5 C 5.96875 -6.484375 6.078125 -6.28125 6.078125 -6.0625 C 6.078125 -6.03125 6.046875 -5.875 6.046875 -5.859375 L 5.140625 -2.296875 C 4.8125 -0.953125 3.65625 -0.09375 2.65625 -0.09375 C 1.984375 -0.09375 1.453125 -0.53125 1.453125 -1.390625 C 1.453125 -1.40625 1.453125 -1.71875 1.5625 -2.15625 L 2.515625 -6.046875 C 2.609375 -6.40625 2.625 -6.5 3.359375 -6.5 C 3.625 -6.5 3.703125 -6.5 3.703125 -6.703125 C 3.703125 -6.8125 3.59375 -6.8125 3.5625 -6.8125 C 3.28125 -6.8125 2.5625 -6.78125 2.28125 -6.78125 C 2 -6.78125 1.28125 -6.8125 1 -6.8125 C 0.921875 -6.8125 0.8125 -6.8125 0.8125 -6.609375 C 0.8125 -6.5 0.890625 -6.5 1.09375 -6.5 C 1.109375 -6.5 1.296875 -6.5 1.46875 -6.484375 C 1.640625 -6.453125 1.734375 -6.453125 1.734375 -6.3125 C 1.734375 -6.265625 1.625 -5.84375 1.5625 -5.609375 L 1.34375 -4.734375 C 1.25 -4.34375 0.78125 -2.46875 0.734375 -2.265625 C 0.671875 -2 0.671875 -1.84375 0.671875 -1.6875 C 0.671875 -0.484375 1.578125 0.21875 2.625 0.21875 C 3.875 0.21875 5.109375 -0.90625 5.4375 -2.21875 Z M 6.328125 -5.765625 "/>
</symbol>
<symbol overflow="visible" id="glyph1-0">
<path style="stroke:none;" d=""/>
</symbol>
<symbol overflow="visible" id="glyph1-1">
<path style="stroke:none;" d="M -6.046875 -7.609375 C -6.40625 -7.703125 -6.5 -7.71875 -6.5 -8.4375 C -6.5 -8.703125 -6.5 -8.78125 -6.703125 -8.78125 C -6.8125 -8.78125 -6.8125 -8.671875 -6.8125 -8.640625 C -6.8125 -8.359375 -6.78125 -7.640625 -6.78125 -7.359375 C -6.78125 -7.078125 -6.8125 -6.375 -6.8125 -6.078125 C -6.8125 -6 -6.8125 -5.890625 -6.609375 -5.890625 C -6.5 -5.890625 -6.5 -5.984375 -6.5 -6.171875 C -6.5 -6.1875 -6.5 -6.375 -6.484375 -6.546875 C -6.453125 -6.734375 -6.453125 -6.8125 -6.3125 -6.8125 C -6.28125 -6.8125 -6.265625 -6.8125 -6.125 -6.78125 L -3.703125 -6.1875 L -3.703125 -3.140625 L -6.046875 -3.734375 C -6.40625 -3.8125 -6.5 -3.84375 -6.5 -4.5625 C -6.5 -4.828125 -6.5 -4.90625 -6.703125 -4.90625 C -6.8125 -4.90625 -6.8125 -4.796875 -6.8125 -4.765625 C -6.8125 -4.484375 -6.78125 -3.765625 -6.78125 -3.484375 C -6.78125 -3.203125 -6.8125 -2.5 -6.8125 -2.203125 C -6.8125 -2.125 -6.8125 -2.015625 -6.609375 -2.015625 C -6.5 -2.015625 -6.5 -2.109375 -6.5 -2.296875 C -6.5 -2.3125 -6.5 -2.5 -6.484375 -2.671875 C -6.453125 -2.84375 -6.453125 -2.9375 -6.3125 -2.9375 C -6.28125 -2.9375 -6.25 -2.9375 -6.125 -2.90625 L -0.78125 -1.5625 C -0.390625 -1.46875 -0.3125 -1.453125 -0.3125 -0.65625 C -0.3125 -0.484375 -0.3125 -0.390625 -0.109375 -0.390625 C 0 -0.390625 0 -0.515625 0 -0.53125 C 0 -0.8125 -0.03125 -1.515625 -0.03125 -1.796875 C -0.03125 -2 -0.015625 -2.21875 -0.015625 -2.4375 C -0.015625 -2.65625 0 -2.875 0 -3.078125 C 0 -3.15625 0 -3.28125 -0.203125 -3.28125 C -0.3125 -3.28125 -0.3125 -3.1875 -0.3125 -3 C -0.3125 -2.625 -0.3125 -2.359375 -0.484375 -2.359375 C -0.546875 -2.359375 -0.59375 -2.375 -0.65625 -2.375 L -3.390625 -3.0625 L -3.390625 -6.09375 C -1.734375 -5.6875 -0.78125 -5.453125 -0.640625 -5.40625 C -0.3125 -5.3125 -0.3125 -5.125 -0.3125 -4.5 C -0.3125 -4.359375 -0.3125 -4.265625 -0.109375 -4.265625 C 0 -4.265625 0 -4.390625 0 -4.40625 C 0 -4.6875 -0.03125 -5.390625 -0.03125 -5.671875 C -0.03125 -5.875 -0.015625 -6.09375 -0.015625 -6.3125 C -0.015625 -6.53125 0 -6.75 0 -6.953125 C 0 -7.03125 0 -7.15625 -0.203125 -7.15625 C -0.3125 -7.15625 -0.3125 -7.0625 -0.3125 -6.875 C -0.3125 -6.515625 -0.3125 -6.234375 -0.484375 -6.234375 C -0.546875 -6.234375 -0.59375 -6.25 -0.65625 -6.265625 Z M -6.046875 -7.609375 "/>
</symbol>
<symbol overflow="visible" id="glyph2-0">
<path style="stroke:none;" d=""/>
</symbol>
<symbol overflow="visible" id="glyph2-1">
<path style="stroke:none;" d="M 1.734375 -0.734375 C 1.671875 -0.5 1.4375 -0.125 1.078125 -0.125 C 1.0625 -0.125 0.84375 -0.125 0.703125 -0.21875 C 0.984375 -0.3125 1.015625 -0.5625 1.015625 -0.609375 C 1.015625 -0.765625 0.890625 -0.859375 0.734375 -0.859375 C 0.53125 -0.859375 0.328125 -0.703125 0.328125 -0.4375 C 0.328125 -0.09375 0.71875 0.0625 1.0625 0.0625 C 1.390625 0.0625 1.671875 -0.125 1.84375 -0.421875 C 2.015625 -0.0625 2.390625 0.0625 2.671875 0.0625 C 3.484375 0.0625 3.90625 -0.796875 3.90625 -1 C 3.90625 -1.09375 3.8125 -1.09375 3.796875 -1.09375 C 3.6875 -1.09375 3.6875 -1.046875 3.65625 -0.96875 C 3.515625 -0.484375 3.09375 -0.125 2.703125 -0.125 C 2.421875 -0.125 2.28125 -0.3125 2.28125 -0.578125 C 2.28125 -0.765625 2.453125 -1.390625 2.640625 -2.171875 C 2.78125 -2.703125 3.09375 -2.875 3.328125 -2.875 C 3.34375 -2.875 3.546875 -2.875 3.703125 -2.78125 C 3.484375 -2.71875 3.390625 -2.515625 3.390625 -2.390625 C 3.390625 -2.25 3.515625 -2.140625 3.671875 -2.140625 C 3.828125 -2.140625 4.0625 -2.265625 4.0625 -2.5625 C 4.0625 -2.953125 3.609375 -3.078125 3.34375 -3.078125 C 2.984375 -3.078125 2.703125 -2.84375 2.5625 -2.578125 C 2.4375 -2.859375 2.109375 -3.078125 1.71875 -3.078125 C 0.9375 -3.078125 0.5 -2.21875 0.5 -2 C 0.5 -1.921875 0.59375 -1.921875 0.609375 -1.921875 C 0.703125 -1.921875 0.703125 -1.9375 0.75 -2.03125 C 0.921875 -2.578125 1.359375 -2.875 1.703125 -2.875 C 1.9375 -2.875 2.125 -2.75 2.125 -2.421875 C 2.125 -2.28125 2.03125 -1.9375 1.96875 -1.6875 Z M 1.734375 -0.734375 "/>
</symbol>
</g>
</defs>
<g id="surface1">
<path style="fill:none;stroke-width:0.99628;stroke-linecap:butt;stroke-linejoin:miter;stroke:rgb(0%,0%,0%);stroke-opacity:1;stroke-miterlimit:10;" d="M -0.00125 -0.0001875 L -0.00125 113.386531 L 113.385469 113.386531 L 113.385469 -0.0001875 Z M -0.00125 -0.0001875 " transform="matrix(1,0,0,-1,44.345,139.867)"/>
<path style="fill:none;stroke-width:11.33855;stroke-linecap:butt;stroke-linejoin:miter;stroke:rgb(50%,50%,50%);stroke-opacity:1;stroke-miterlimit:10;" d="M -5.669219 -11.340031 L -5.669219 113.386531 " transform="matrix(1,0,0,-1,44.345,139.867)"/>
<path style="fill:none;stroke-width:11.33855;stroke-linecap:butt;stroke-linejoin:miter;stroke:rgb(50%,50%,50%);stroke-opacity:1;stroke-miterlimit:10;" d="M 119.057344 113.386531 L 119.057344 -11.340031 " transform="matrix(1,0,0,-1,44.345,139.867)"/>
<path style="fill:none;stroke-width:11.33855;stroke-linecap:butt;stroke-linejoin:miter;stroke:rgb(50%,50%,50%);stroke-opacity:1;stroke-miterlimit:10;" d="M -0.00125 -5.668156 L 113.385469 -5.668156 " transform="matrix(1,0,0,-1,44.345,139.867)"/>
<path style="fill:none;stroke-width:0.00995;stroke-linecap:butt;stroke-linejoin:miter;stroke:rgb(59.999084%,59.999084%,59.999084%);stroke-opacity:1;stroke-miterlimit:10;" d="M -0.00125 -22.675969 L -0.00125 -11.336125 " transform="matrix(1,0,0,-1,44.345,139.867)"/>
<path style="fill:none;stroke-width:0.00995;stroke-linecap:butt;stroke-linejoin:miter;stroke:rgb(59.999084%,59.999084%,59.999084%);stroke-opacity:1;stroke-miterlimit:10;" d="M 113.385469 -22.675969 L 113.385469 -11.336125 " transform="matrix(1,0,0,-1,44.345,139.867)"/>
<path style="fill:none;stroke-width:0.69739;stroke-linecap:butt;stroke-linejoin:miter;stroke:rgb(0%,0%,0%);stroke-opacity:1;stroke-miterlimit:10;" d="M 3.487031 -22.675969 L 109.901094 -22.675969 " transform="matrix(1,0,0,-1,44.345,139.867)"/>
<path style="fill:none;stroke-width:0.34868;stroke-linecap:butt;stroke-linejoin:miter;stroke:rgb(0%,0%,0%);stroke-opacity:1;stroke-miterlimit:10;" d="M 3.312419 2.092619 L 3.312419 -2.090975 " transform="matrix(-1,0,0,1,47.83195,162.5441)"/>
<path style="fill-rule:nonzero;fill:rgb(0%,0%,0%);fill-opacity:1;stroke-width:0.00995;stroke-linecap:butt;stroke-linejoin:miter;stroke:rgb(0%,0%,0%);stroke-opacity:1;stroke-miterlimit:10;" d="M 3.136637 -0.00113125 L -2.093831 1.3934 L -2.093831 -1.395662 Z M 3.136637 -0.00113125 " transform="matrix(-1,0,0,1,47.83195,162.5441)"/>
<path style="fill:none;stroke-width:0.34868;stroke-linecap:butt;stroke-linejoin:miter;stroke:rgb(0%,0%,0%);stroke-opacity:1;stroke-miterlimit:10;" d="M 3.313314 2.090975 L 3.313314 -2.092619 " transform="matrix(1,0,0,-1,154.24528,162.5441)"/>
<path style="fill-rule:nonzero;fill:rgb(0%,0%,0%);fill-opacity:1;stroke-width:0.00995;stroke-linecap:butt;stroke-linejoin:miter;stroke:rgb(0%,0%,0%);stroke-opacity:1;stroke-miterlimit:10;" d="M 3.137532 0.00113125 L -2.092936 1.395662 L -2.092936 -1.3934 Z M 3.137532 0.00113125 " transform="matrix(1,0,0,-1,154.24528,162.5441)"/>
<path style=" stroke:none;fill-rule:nonzero;fill:rgb(100%,100%,100%);fill-opacity:1;" d="M 94.328125 169.269531 L 107.75 169.269531 L 107.75 155.820312 L 94.328125 155.820312 Z M 94.328125 169.269531 "/>
<g style="fill:rgb(0%,0%,0%);fill-opacity:1;">
  <use xlink:href="#glyph0-1" x="97.648" y="165.948"/>
</g>
<path style="fill:none;stroke-width:0.00995;stroke-linecap:butt;stroke-linejoin:miter;stroke:rgb(59.999084%,59.999084%,59.999084%);stroke-opacity:1;stroke-miterlimit:10;" d="M -22.677031 -0.0001875 L -11.337187 -0.0001875 " transform="matrix(1,0,0,-1,44.345,139.867)"/>
<path style="fill:none;stroke-width:0.00995;stroke-linecap:butt;stroke-linejoin:miter;stroke:rgb(59.999084%,59.999084%,59.999084%);stroke-opacity:1;stroke-miterlimit:10;" d="M -22.677031 113.386531 L -11.337187 113.386531 " transform="matrix(1,0,0,-1,44.345,139.867)"/>
<path style="fill:none;stroke-width:0.69739;stroke-linecap:butt;stroke-linejoin:miter;stroke:rgb(0%,0%,0%);stroke-opacity:1;stroke-miterlimit:10;" d="M -22.677031 3.488094 L -22.677031 109.902156 " transform="matrix(1,0,0,-1,44.345,139.867)"/>
<path style="fill:none;stroke-width:0.34868;stroke-linecap:butt;stroke-linejoin:miter;stroke:rgb(0%,0%,0%);stroke-opacity:1;stroke-miterlimit:10;" d="M 3.311356 2.093819 L 3.311356 -2.093681 " transform="matrix(0,1,1,0,21.6679,136.38005)"/>
<path style="fill-rule:nonzero;fill:rgb(0%,0%,0%);fill-opacity:1;stroke-width:0.00995;stroke-linecap:butt;stroke-linejoin:miter;stroke:rgb(0%,0%,0%);stroke-opacity:1;stroke-miterlimit:10;" d="M 3.139481 0.00006875 L -2.090987 1.3946 L -2.090987 -1.394462 Z M 3.139481 0.00006875 " transform="matrix(0,1,1,0,21.6679,136.38005)"/>
<path style="fill:none;stroke-width:0.34868;stroke-linecap:butt;stroke-linejoin:miter;stroke:rgb(0%,0%,0%);stroke-opacity:1;stroke-miterlimit:10;" d="M 3.314376 2.093681 L 3.314376 -2.093819 " transform="matrix(0,-1,-1,0,21.6679,29.96672)"/>
<path style="fill-rule:nonzero;fill:rgb(0%,0%,0%);fill-opacity:1;stroke-width:0.00995;stroke-linecap:butt;stroke-linejoin:miter;stroke:rgb(0%,0%,0%);stroke-opacity:1;stroke-miterlimit:10;" d="M 3.138595 -0.00006875 L -2.091874 1.394462 L -2.091874 -1.3946 Z M 3.138595 -0.00006875 " transform="matrix(0,-1,-1,0,21.6679,29.96672)"/>
<path style=" stroke:none;fill-rule:nonzero;fill:rgb(100%,100%,100%);fill-opacity:1;" d="M 14.945312 75.308594 L 14.945312 91.039062 L 28.390625 91.039062 L 28.390625 75.308594 Z M 14.945312 75.308594 "/>
<g style="fill:rgb(0%,0%,0%);fill-opacity:1;">
  <use xlink:href="#glyph1-1" x="25.072" y="87.72"/>
</g>
<g style="fill:rgb(0%,0%,0%);fill-opacity:1;">
  <use xlink:href="#glyph0-2" x="95.129" y="10.128"/>
</g>
<g style="fill:rgb(0%,0%,0%);fill-opacity:1;">
  <use xlink:href="#glyph2-1" x="101.931" y="11.623"/>
</g>
<path style="fill:none;stroke-width:0.79701;stroke-linecap:butt;stroke-linejoin:miter;stroke:rgb(0%,0%,100%);stroke-opacity:1;stroke-miterlimit:10;" d="M 34.018281 124.726375 L 74.709688 124.726375 " transform="matrix(1,0,0,-1,44.345,139.867)"/>
<path style=" stroke:none;fill-rule:nonzero;fill:rgb(0%,0%,100%);fill-opacity:1;" d="M 123.714844 15.140625 C 122.335938 14.882812 120.089844 14.105469 118.535156 13.199219 L 118.535156 17.082031 C 120.089844 16.175781 122.335938 15.398438 123.714844 15.140625 "/>
</g>
</svg>
